{"id_student":"0","name":"Hubert","surname":"Quentin","class":0}
{"id_student":"1","name":"Gaillard","surname":"Stéphanie","class":0}
{"id_student":"2","name":"Dufour","surname":"Corinne","class":0}
{"id_student":"3","name":"Cousin","surname":"Florence","class":0}
{"id_student":"4","name":"Rolland","surname":"Denis","class":0}
{"id_student":"5","name":"Reynaud","surname":"Denise","class":0}
{"id_student":"6","name":"Benard","surname":"Romain","class":0}
{"id_student":"7","name":"Lecomte","surname":"Eric","class":0}
{"id_student":"8","name":"Mercier","surname":"Claudine","class":0}
{"id_student":"9","name":"Maillard","surname":"Georgette","class":0}
{"id_student":"10","name":"Jacquet","surname":"Bernard","class":0}
{"id_student":"11","name":"Barthelemy","surname":"Dominique","class":0}
{"id_student":"12","name":"Germain","surname":"Benjamin","class":0}
{"id_student":"13","name":"Colin","surname":"Christine","class":0}
{"id_student":"14","name":"Simon","surname":"Dominique","class":0}
{"id_student":"15","name":"Muller","surname":"Joël","class":0}
{"id_student":"16","name":"Chauvin","surname":"Laurent","class":0}
{"id_student":"17","name":"Fournier","surname":"Marcelle","class":0}
{"id_student":"18","name":"Thomas","surname":"Nicole","class":0}
{"id_student":"19","name":"Charles","surname":"Laetitia","class":0}
{"id_student":"20","name":"Simon","surname":"Mathilde","class":0}
{"id_student":"21","name":"Perrier","surname":"Mathieu","class":0}
{"id_student":"22","name":"Pierre","surname":"Jean","class":0}
{"id_student":"23","name":"Weber","surname":"Emile","class":0}
{"id_student":"24","name":"Boulanger","surname":"Brigitte","class":0}
{"id_student":"25","name":"Lopez","surname":"Guillaume","class":0}
{"id_student":"26","name":"Humbert","surname":"Thomas","class":0}
{"id_student":"27","name":"Baron","surname":"Thierry","class":0}
{"id_student":"28","name":"Antoine","surname":"Julien","class":0}
{"id_student":"29","name":"Reynaud","surname":"Monique","class":0}
{"id_student":"30","name":"Carlier","surname":"Florence","class":0}
{"id_student":"31","name":"Hoarau","surname":"Jeannine","class":0}
{"id_student":"32","name":"Gerard","surname":"Suzanne","class":1}
{"id_student":"33","name":"Moulin","surname":"Serge","class":1}
{"id_student":"34","name":"Hubert","surname":"Alexis","class":1}
{"id_student":"35","name":"Laurent","surname":"Marine","class":1}
{"id_student":"36","name":"Weber","surname":"Marine","class":1}
{"id_student":"37","name":"Nicolas","surname":"Léa","class":1}
{"id_student":"38","name":"Roger","surname":"Marcelle","class":1}
{"id_student":"39","name":"Jacquet","surname":"Fernand","class":1}
{"id_student":"40","name":"Da Silva","surname":"Jacques","class":1}
{"id_student":"41","name":"Herve","surname":"Charlotte","class":1}
{"id_student":"42","name":"Bouvier","surname":"Gérard","class":1}
{"id_student":"43","name":"Richard","surname":"Clément","class":1}
{"id_student":"44","name":"Muller","surname":"Simone","class":1}
{"id_student":"45","name":"Gillet","surname":"Mathieu","class":1}
{"id_student":"46","name":"Joly","surname":"Emmanuel","class":1}
{"id_student":"47","name":"Legrand","surname":"Odette","class":1}
{"id_student":"48","name":"Gerard","surname":"Denis","class":1}
{"id_student":"49","name":"Royer","surname":"Serge","class":1}
{"id_student":"50","name":"Marie","surname":"Sylvie","class":1}
{"id_student":"51","name":"Perez","surname":"Claudine","class":1}
{"id_student":"52","name":"Joly","surname":"Christine","class":1}
{"id_student":"53","name":"Fournier","surname":"Eliane","class":1}
{"id_student":"54","name":"Delaunay","surname":"Jerome","class":1}
{"id_student":"55","name":"Klein","surname":"Damien","class":1}
{"id_student":"56","name":"Benoit","surname":"Nadine","class":1}
{"id_student":"57","name":"Vasseur","surname":"Mathilde","class":2}
{"id_student":"58","name":"Marie","surname":"Mireille","class":2}
{"id_student":"59","name":"Schneider","surname":"Stéphanie","class":2}
{"id_student":"60","name":"Chevallier","surname":"Marie","class":2}
{"id_student":"61","name":"Sanchez","surname":"Mélanie","class":2}
{"id_student":"62","name":"Marty","surname":"Fernand","class":2}
{"id_student":"63","name":"Lejeune","surname":"Jean","class":2}
{"id_student":"64","name":"Leveque","surname":"Olivier","class":2}
{"id_student":"65","name":"Louis","surname":"Anne","class":2}
{"id_student":"66","name":"Muller","surname":"Sandrine","class":2}
{"id_student":"67","name":"Paris","surname":"Marine","class":2}
{"id_student":"68","name":"Renault","surname":"Sylvie","class":2}
{"id_student":"69","name":"Hubert","surname":"Laurence","class":2}
{"id_student":"70","name":"Fontaine","surname":"Emile","class":2}
{"id_student":"71","name":"Lemoine","surname":"Christophe","class":2}
{"id_student":"72","name":"Perrin","surname":"Roland","class":2}
{"id_student":"73","name":"Roy","surname":"Romain","class":2}
{"id_student":"74","name":"Weber","surname":"Gérard","class":2}
{"id_student":"75","name":"Garnier","surname":"Chloé","class":2}
{"id_student":"76","name":"Martin","surname":"Florence","class":2}
{"id_student":"77","name":"Hoarau","surname":"Paul","class":2}
{"id_student":"78","name":"Leroy","surname":"Lucas","class":2}
{"id_student":"79","name":"Girard","surname":"Juliette","class":2}
{"id_student":"80","name":"Faure","surname":"Christophe","class":2}
{"id_student":"81","name":"Royer","surname":"Valérie","class":2}
{"id_student":"82","name":"Lambert","surname":"Eliane","class":2}
{"id_student":"83","name":"Bernard","surname":"Karine","class":2}
{"id_student":"84","name":"Gillet","surname":"Hervé","class":2}
{"id_student":"85","name":"Guillot","surname":"Isabelle","class":2}
{"id_student":"86","name":"Antoine","surname":"Sylvie","class":2}
{"id_student":"87","name":"Perrin","surname":"Florence","class":3}
{"id_student":"88","name":"Blanc","surname":"Audrey","class":3}
{"id_student":"89","name":"Charpentier","surname":"Adrien","class":3}
{"id_student":"90","name":"Philippe","surname":"Eric","class":3}
{"id_student":"91","name":"Schneider","surname":"Henriette","class":3}
{"id_student":"92","name":"Lefebvre","surname":"Henri","class":3}
{"id_student":"93","name":"Dufour","surname":"Suzanne","class":3}
{"id_student":"94","name":"Antoine","surname":"Paul","class":3}
{"id_student":"95","name":"Lacroix","surname":"Denis","class":3}
{"id_student":"96","name":"Carre","surname":"Jeremy","class":3}
{"id_student":"97","name":"Barbier","surname":"Nicole","class":3}
{"id_student":"98","name":"Vincent","surname":"Jacques","class":3}
{"id_student":"99","name":"Le Goff","surname":"Léon","class":3}
{"id_student":"100","name":"Michaud","surname":"Bernadette","class":3}
{"id_student":"101","name":"Tessier","surname":"Mireille","class":3}
{"id_student":"102","name":"Vasseur","surname":"Marguerite","class":3}
{"id_student":"103","name":"Klein","surname":"Laetitia","class":3}
{"id_student":"104","name":"Andre","surname":"Emmanuel","class":3}
{"id_student":"105","name":"Bourgeois","surname":"Jean-Claude","class":3}
{"id_student":"106","name":"Meunier","surname":"Georges","class":3}
{"id_student":"107","name":"Olivier","surname":"Thérèse","class":3}
{"id_student":"108","name":"Roux","surname":"Odette","class":3}
{"id_student":"109","name":"Aubert","surname":"Adrien","class":3}
{"id_student":"110","name":"Lemaitre","surname":"Paulette","class":3}
{"id_student":"111","name":"Carpentier","surname":"Roger","class":3}
{"id_student":"112","name":"Henry","surname":"Odette","class":3}
{"id_student":"113","name":"Morin","surname":"Pauline","class":3}
{"id_student":"114","name":"Michel","surname":"Annie","class":3}
{"id_student":"115","name":"Weber","surname":"Kevin","class":3}
{"id_student":"116","name":"Renard","surname":"Patricia","class":3}
{"id_student":"117","name":"Grondin","surname":"Gabriel","class":3}
{"id_student":"118","name":"Grondin","surname":"Suzanne","class":3}
{"id_student":"119","name":"Huet","surname":"Martine","class":3}
{"id_student":"120","name":"Lebrun","surname":"Christian","class":4}
{"id_student":"121","name":"Rolland","surname":"Roger","class":4}
{"id_student":"122","name":"Muller","surname":"Dominique","class":4}
{"id_student":"123","name":"Jean","surname":"Emilie","class":4}
{"id_student":"124","name":"Perrier","surname":"Jean-Luc","class":4}
{"id_student":"125","name":"Bernard","surname":"Jacqueline","class":4}
{"id_student":"126","name":"Louis","surname":"Florian","class":4}
{"id_student":"127","name":"Rey","surname":"Kevin","class":4}
{"id_student":"128","name":"Besson","surname":"Michèle","class":4}
{"id_student":"129","name":"Schneider","surname":"Claude","class":4}
{"id_student":"130","name":"Gauthier","surname":"Gérard","class":4}
{"id_student":"131","name":"Blanchard","surname":"Claire","class":4}
{"id_student":"132","name":"David","surname":"Jacques","class":4}
{"id_student":"133","name":"Hubert","surname":"Pierre","class":4}
{"id_student":"134","name":"Lefevre","surname":"Brigitte","class":4}
{"id_student":"135","name":"Laurent","surname":"Frédéric","class":4}
{"id_student":"136","name":"Mercier","surname":"Claire","class":4}
{"id_student":"137","name":"Picard","surname":"Sophie","class":4}
{"id_student":"138","name":"Sanchez","surname":"Alice","class":4}
{"id_student":"139","name":"Menard","surname":"Marguerite","class":4}
{"id_student":"140","name":"Chevallier","surname":"Victor","class":4}
{"id_student":"141","name":"Deschamps","surname":"Alice","class":4}
{"id_student":"142","name":"Mallet","surname":"Josette","class":4}
{"id_student":"143","name":"Perret","surname":"Marine","class":4}
{"id_student":"144","name":"Lucas","surname":"Fernand","class":4}
{"id_student":"145","name":"Chevallier","surname":"Paulette","class":4}
{"id_student":"146","name":"Bailly","surname":"Lucas","class":4}
{"id_student":"147","name":"Roche","surname":"Gabriel","class":4}
{"id_student":"148","name":"Girard","surname":"Audrey","class":4}
{"id_student":"149","name":"Charles","surname":"Florian","class":4}
{"id_student":"150","name":"Marchand","surname":"Marcel","class":4}
{"id_student":"151","name":"Poirier","surname":"Martine","class":4}
{"id_student":"152","name":"Pelletier","surname":"Véronique","class":4}
{"id_student":"153","name":"Paris","surname":"Adrien","class":4}
